<?xml version="1.0" encoding="utf-8"?>
<!-- Generator: Adobe Illustrator 24.2.1, SVG Export Plug-In . SVG Version: 6.00 Build 0)  -->
<svg version="1.1" id="Layer_1" xmlns="http://www.w3.org/2000/svg" xmlns:xlink="http://www.w3.org/1999/xlink" x="0px" y="0px"
	 viewBox="0 0 512 512" style="enable-background:new 0 0 512 512;" xml:space="preserve">
<style type="text/css">
	.st0{fill:#CD7DBC;}
	.st1{fill:#BC52A6;}
	.st2{fill:#EED4E9;}
	.st3{fill:#DDA9D3;}
	.st4{fill:#AB2790;}
	.st5{fill:#801D6C;}
</style>
<path class="st0" d="M151.37,49.32l-5.06,0.66c-7.81,1.02-13.32,8.17-12.3,15.97L190.86,504h34.54L167.34,61.63
	C166.32,53.82,159.18,48.31,151.37,49.32z"/>
<path class="st1" d="M167.34,61.63c-1.02-7.81-8.16-13.32-15.97-12.3l-5.06,0.66c-0.44,0.06-0.87,0.14-1.3,0.23
	c4.65,1.86,8.19,6.1,8.88,11.41L211.94,504h13.45L167.34,61.63z"/>
<path class="st2" d="M300.93,272.35l-247.2,32.07c-11.59,1.51-22.21-6.67-23.72-18.27L13.18,156.49
	c-1.51-11.59,6.68-22.21,18.27-23.72l151.41-19.65l95.79-12.43c11.59-1.51,22.21,6.68,23.72,18.27l12.69,97.74l4.14,31.92
	C320.7,260.22,312.52,270.84,300.93,272.35z"/>
<path class="st3" d="M315.05,216.7l-122.23-15.87c-0.65-0.08-1.3-0.2-1.94-0.34c-0.64-0.91-0.64-2.15,0.07-3.07l18.55-23.84
	c4.95-6.44,3.75-15.68-2.69-20.64c-6.44-4.96-15.68-3.76-20.64,2.68l-10.61,13.63l7.28-56.14l95.79-12.43
	c11.59-1.51,22.21,6.68,23.72,18.27L315.05,216.7z"/>
<path class="st4" d="M221.02,231.12c0,3.2-1.01,6.45-3.12,9.18c-4.81,6.25-13.78,7.44-20.06,2.66l-24.54-18.7
	c-1.12-0.86-2.72-0.65-3.59,0.46l-18.95,24.35c-2.82,3.64-7.06,5.54-11.33,5.54c-3.05,0-6.14-0.97-8.75-2.98
	c-6.61-5.09-7.82-14.64-2.7-21.22l18.28-23.48c0.88-1.13,0.66-2.76-0.47-3.62l-24.02-18.32c-6.44-4.95-7.64-14.19-2.68-20.64
	c4.96-6.44,14.2-7.64,20.64-2.68l24.18,18.43c1.12,0.85,2.72,0.65,3.58-0.46l8.06-10.36l-1.02,7.85
	c-1.42,10.95,5.77,21.01,16.33,23.38c0.15,0.21,0.33,0.4,0.54,0.56l23.67,18.04C218.98,222.05,221.02,226.55,221.02,231.12z"/>
<path class="st0" d="M356.55,0.03l3.59,0.47c8.21,1.07,14.01,8.59,12.94,16.8L309.92,504h-34.07l63.9-491.03
	C340.82,4.76,348.34-1.04,356.55,0.03z"/>
<path class="st1" d="M360.14,0.5l-3.59-0.47c-3.05-0.39-6.01,0.16-8.57,1.43c6.2,2.48,10.2,8.91,9.3,15.84L294.12,504h15.8
	l63.16-486.7C374.15,9.08,368.36,1.56,360.14,0.5z"/>
<path class="st5" d="M209.52,173.59l-18.55,23.84c-0.72,0.92-0.72,2.16-0.07,3.07c-10.56-2.37-17.75-12.43-16.33-23.38l1.02-7.85
	l10.61-13.63c4.96-6.44,14.2-7.64,20.64-2.68C213.27,157.91,214.47,167.16,209.52,173.59z"/>
<path class="st2" d="M209.86,186.86l249.34,32.36c11.01,1.43,21.09-6.34,22.51-17.34l17.11-131.8c1.43-11-6.33-21.09-17.34-22.51
	L232.13,15.21c-11-1.43-21.08,6.34-22.51,17.34l-17.11,131.8C191.09,175.35,198.85,185.43,209.86,186.86z"/>
<path class="st4" d="M315.52,159.88c-3.51-0.4-6.71-2.18-8.91-4.95l-24.84-31.31c-4.57-5.76-3.61-14.14,2.15-18.71
	s14.14-3.61,18.71,2.15l16.57,20.88l57.91-45.96c5.76-4.57,14.14-3.61,18.71,2.16c4.57,5.76,3.61,14.14-2.15,18.71l-68.34,54.24
	C322.55,159.27,319.03,160.28,315.52,159.88z"/>
<path class="st4" d="M352.11,512h-197.2c-3.72,0-7.1-2.48-7.93-6.11c-1.2-5.24,2.75-9.89,7.78-9.89h197.34c4.42,0,8,3.58,8,8
	C360.11,508.42,356.54,512,352.11,512z"/>
</svg>
