<?xml version="1.0" encoding="utf-8"?>
<!-- Generator: Adobe Illustrator 24.2.1, SVG Export Plug-In . SVG Version: 6.00 Build 0)  -->
<svg version="1.1" id="Capa_1" xmlns="http://www.w3.org/2000/svg" xmlns:xlink="http://www.w3.org/1999/xlink" x="0px" y="0px"
	 viewBox="0 0 512 512" style="enable-background:new 0 0 512 512;" xml:space="preserve">
<style type="text/css">
	.st0{fill-rule:evenodd;clip-rule:evenodd;fill:#A26BB0;}
	.st1{fill-rule:evenodd;clip-rule:evenodd;fill:#D0B4D7;}
</style>
<path class="st0" d="M118.99,137c32.72,0,62.45,13.36,84.01,34.9l17.94-17.94c5.86-5.86,15.35-5.86,21.21,0s5.86,15.35,0,21.21
	l-20.61,20.61c27.67,46.84,19.79,106-18.49,144.28c-46.58,46.58-121.53,46.58-168.11,0c-46.58-46.58-46.58-121.53,0-168.11
	C56.5,150.38,86.25,137,118.99,137L118.99,137z M74.5,258.12c-5.86-5.86-5.86-15.35,0-21.21s15.35-5.86,21.21,0l21.14,21.14
	l64.94-64.94c-34.87-34.82-90.8-34.8-125.64,0.05c-34.86,34.86-34.86,90.83,0,125.69c34.87,34.87,90.83,34.86,125.69,0
	c26.51-26.51,33.85-66.76,17.54-100.91l-71.93,71.93c-5.86,5.86-15.35,5.86-21.21,0L74.5,258.12z"/>
<path class="st1" d="M393.82,137.18c65.48,0,119,53.52,119,119s-53.52,119-119,119s-119-53.52-119-119
	C274.82,190.7,328.34,137.18,393.82,137.18L393.82,137.18z M393.82,167.18c-48.92,0-89,40.08-89,89s40.08,89,89,89s89-40.08,89-89
	C482.82,207.26,442.74,167.18,393.82,167.18L393.82,167.18z M420.2,208.59l-26.38,26.38l-26.38-26.38c-5.86-5.86-15.35-5.86-21.21,0
	s-5.86,15.35,0,21.21l26.38,26.38l-26.38,26.38c-5.86,5.86-5.86,15.35,0,21.21s15.35,5.86,21.21,0l26.38-26.38l26.38,26.38
	c5.86,5.86,15.35,5.86,21.21,0s5.86-15.35,0-21.21l-26.38-26.38l26.38-26.38c5.86-5.86,5.86-15.35,0-21.21
	C435.56,202.73,426.06,202.73,420.2,208.59L420.2,208.59z"/>
</svg>
